{
    "host": "cluster0.1nx5g.mongodb.net",
    "name": "cloudnative",
    "user": "admin",
    "pass": "bYufvnRqZDQ0Jyr4",
    "options": {
        "useNewUrlParser": true,
        "useUnifiedTopology": true,
        "authSource": "admin"
    }
}